name	start	end	strand	type
mt-Atp8	7766	7969	+	protein coding gene
mt-Atp6	7927	8607	+	protein coding gene
mt-Nd1	2751	3707	+	protein coding gene
mt-Ty	5260	5326	-	tRNA gene
mt-Tw	4950	5016	+	tRNA gene
mt-Tv	1025	1093	+	tRNA gene
mt-Tt	15289	15355	+	tRNA gene
mt-Ts2	11613	11671	+	tRNA gene
mt-Ts1	6870	6938	-	tRNA gene
mt-Tr	9808	9875	+	tRNA gene
mt-Tq	3772	3842	-	tRNA gene
mt-Tp	15356	15422	-	tRNA gene
mt-Tn	5089	5159	-	tRNA gene
mt-Tm	3845	3913	+	tRNA gene
mt-Tl2	11671	11741	+	tRNA gene
mt-Tl1	2676	2750	+	tRNA gene
mt-Tk	7700	7764	+	tRNA gene
mt-Ti	3706	3774	+	tRNA gene
mt-Th	11546	11612	+	tRNA gene
mt-Tg	9391	9458	+	tRNA gene
mt-Tf	1	68	+	tRNA gene
mt-Te	14071	14139	-	tRNA gene
mt-Td	6942	7011	+	tRNA gene
mt-Tc	5192	5257	-	tRNA gene
mt-Ta	5018	5086	-	tRNA gene
mt-Rnr2	1094	2675	+	rRNA gene
mt-Rnr1	70	1024	+	rRNA gene
mt-Nd6	13552	14070	-	protein coding gene
mt-Nd5	11742	13565	+	protein coding gene
mt-Nd4l	9877	10173	+	protein coding gene
mt-Nd4	10167	11544	+	protein coding gene
mt-Nd3	9459	9806	+	protein coding gene
mt-Nd2	3914	4951	+	protein coding gene
mt-Cytb	14145	15288	+	protein coding gene
mt-Co3	8607	9390	+	protein coding gene
mt-Co2	7013	7696	+	protein coding gene
mt-Co1	5328	6872	+	protein coding gene
Tssr5577	12453	12465	+	TSS region
Tssr5578	12509	12520	-	TSS region
Tssr5579	14048	14053	-	TSS region
Tssr5580	14407	14424	-	TSS region
Tssr160106	66	79	+	TSS region
Tssr160107	487	498	+	TSS region
Tssr160108	592	603	+	TSS region
Tssr160109	1087	1106	+	TSS region
Tssr160110	2132	2143	+	TSS region
Tssr160111	2151	2162	+	TSS region
Tssr160112	2166	2178	+	TSS region
Tssr160113	2200	2211	+	TSS region
Tssr160114	2250	2259	+	TSS region
Tssr160115	2280	2291	+	TSS region
Tssr160116	2322	2333	+	TSS region
Tssr160117	2345	2356	+	TSS region
Tssr160118	2369	2380	+	TSS region
Tssr160119	2391	2402	+	TSS region
Tssr160120	2419	2428	+	TSS region
Tssr160121	2743	2761	+	TSS region
Tssr160122	2853	2864	+	TSS region
Tssr160123	3048	3059	+	TSS region
Tssr160124	3064	3075	+	TSS region
Tssr160125	3113	3122	+	TSS region
Tssr160126	3171	3182	+	TSS region
Tssr160127	3375	3390	+	TSS region
Tssr160128	3434	3445	+	TSS region
Tssr160129	3906	3926	+	TSS region
Tssr160130	4005	4014	+	TSS region
Tssr160131	4228	4239	+	TSS region
Tssr160132	4286	4297	+	TSS region
Tssr160133	4404	4426	+	TSS region
Tssr160134	4666	4678	+	TSS region
Tssr160135	4750	4765	+	TSS region
Tssr160136	4870	4907	+	TSS region
Tssr160137	5015	5020	+	TSS region
Tssr160138	5319	5333	+	TSS region
Tssr160139	5358	5386	+	TSS region
Tssr160140	5400	5413	+	TSS region
Tssr160141	5722	5731	+	TSS region
Tssr160142	5756	5799	+	TSS region
Tssr160143	5803	5815	+	TSS region
Tssr160144	5817	5829	+	TSS region
Tssr160145	5835	5848	+	TSS region
Tssr160146	5893	5902	+	TSS region
Tssr160147	5995	6020	+	TSS region
Tssr160148	6037	6048	+	TSS region
Tssr160149	6145	6167	+	TSS region
Tssr160150	6180	6197	+	TSS region
Tssr160151	6200	6223	+	TSS region
Tssr160152	6239	6248	+	TSS region
Tssr160153	6308	6321	+	TSS region
Tssr160154	6343	6355	+	TSS region
Tssr160155	6362	6378	+	TSS region
Tssr160156	7005	7022	+	TSS region
Tssr160157	7024	7052	+	TSS region
Tssr160158	7759	7794	+	TSS region
Tssr160159	8600	8616	+	TSS region
Tssr160160	8618	8619	+	TSS region
Tssr160161	8942	8953	+	TSS region
Tssr160162	8962	8969	+	TSS region
Tssr160163	9452	9468	+	TSS region
Tssr160164	9870	9885	+	TSS region
Tssr160165	9975	9987	+	TSS region
Tssr160166	10092	10103	+	TSS region
Tssr160167	10603	10606	+	TSS region
Tssr160168	11083	11106	+	TSS region
Tssr160169	11108	11119	+	TSS region
Tssr160170	11120	11134	+	TSS region
Tssr160171	11172	11190	+	TSS region
Tssr160172	11194	11230	+	TSS region
Tssr160173	11241	11283	+	TSS region
Tssr160174	11291	11305	+	TSS region
Tssr160175	11323	11336	+	TSS region
Tssr160176	11351	11362	+	TSS region
Tssr160177	11371	11423	+	TSS region
Tssr160178	11425	11457	+	TSS region
Tssr160179	11459	11470	+	TSS region
Tssr160180	11678	11685	+	TSS region
Tssr160181	11734	11757	+	TSS region
Tssr160182	12066	12077	+	TSS region
Tssr160183	12689	12701	+	TSS region
Tssr160184	12952	12974	+	TSS region
Tssr160185	12975	13016	+	TSS region
Tssr160186	13023	13055	+	TSS region
Tssr160187	13130	13141	+	TSS region
Tssr160188	13314	13335	+	TSS region
Tssr160189	13371	13384	+	TSS region
Tssr160190	13423	13435	+	TSS region
Tssr160191	13481	13492	+	TSS region
Tssr160192	13624	13635	+	TSS region
Tssr160193	13639	13659	+	TSS region
Tssr160194	13832	13844	+	TSS region
Tssr160195	13856	13867	+	TSS region
Tssr160196	14117	14129	+	TSS region
Tssr160197	14138	14154	+	TSS region
Tssr160198	14290	14302	+	TSS region
Tssr160199	14546	14557	+	TSS region
Tssr160200	14566	14577	+	TSS region
Tssr160201	14636	14662	+	TSS region
Tssr160202	14667	14678	+	TSS region
Tssr160203	14710	14722	+	TSS region
Tssr160204	14743	14756	+	TSS region
Tssr160205	15351	15364	+	TSS region
Tssr160206	15394	15430	+	TSS region
Tssr160207	15460	15488	+	TSS region
Tssr160208	15520	15532	+	TSS region
Tssr160209	15568	15589	+	TSS region
Tssr160210	15616	15625	+	TSS region
Tssr160211	16007	16061	+	TSS region
Tssr160212	16070	16093	+	TSS region
Tssr160213	16098	16107	+	TSS region
Tssr160214	16129	16146	+	TSS region
Tssr160215	16222	16242	+	TSS region
Tssr160216	250	313	-	TSS region
Tssr160217	356	367	-	TSS region
Tssr160218	380	394	-	TSS region
Tssr160219	405	410	-	TSS region
Tssr160220	418	446	-	TSS region
Tssr160221	455	485	-	TSS region
Tssr160222	530	533	-	TSS region
Tssr160223	570	581	-	TSS region
Tssr160224	630	641	-	TSS region
Tssr160225	679	688	-	TSS region
Tssr160226	732	741	-	TSS region
Tssr160227	747	752	-	TSS region
Tssr160228	761	788	-	TSS region
Tssr160229	835	846	-	TSS region
Tssr160230	847	854	-	TSS region
Tssr160231	872	884	-	TSS region
Tssr160232	1221	1243	-	TSS region
Tssr160233	1248	1266	-	TSS region
Tssr160234	1288	1299	-	TSS region
Tssr160235	1327	1348	-	TSS region
Tssr160236	1411	1423	-	TSS region
Tssr160237	1448	1455	-	TSS region
Tssr160238	1499	1506	-	TSS region
Tssr160239	1521	1544	-	TSS region
Tssr160240	1588	1619	-	TSS region
Tssr160241	1642	1653	-	TSS region
Tssr160242	1878	1945	-	TSS region
Tssr160243	1965	2009	-	TSS region
Tssr160244	2024	2056	-	TSS region
Tssr160245	2067	2109	-	TSS region
Tssr160246	2167	2182	-	TSS region
Tssr160247	2258	2280	-	TSS region
Tssr160248	2339	2354	-	TSS region
Tssr160249	2360	2389	-	TSS region
Tssr160250	2419	2428	-	TSS region
Tssr160251	2466	2504	-	TSS region
Tssr160252	2844	2855	-	TSS region
Tssr160253	3021	3048	-	TSS region
Tssr160254	3111	3126	-	TSS region
Tssr160255	3153	3165	-	TSS region
Tssr160256	3240	3282	-	TSS region
Tssr160257	3307	3337	-	TSS region
Tssr160258	3381	3391	-	TSS region
Tssr160259	3398	3425	-	TSS region
Tssr160260	3434	3653	-	TSS region
Tssr160261	3662	3685	-	TSS region
Tssr160262	3697	3709	-	TSS region
Tssr160263	3712	3736	-	TSS region
Tssr160264	3755	3776	-	TSS region
Tssr160265	3797	3811	-	TSS region
Tssr160266	3827	3873	-	TSS region
Tssr160267	3883	3895	-	TSS region
Tssr160268	4042	4055	-	TSS region
Tssr160269	4088	4126	-	TSS region
Tssr160270	4227	4244	-	TSS region
Tssr160271	4277	4328	-	TSS region
Tssr160272	4329	4352	-	TSS region
Tssr160273	4356	4385	-	TSS region
Tssr160274	4386	4452	-	TSS region
Tssr160275	4458	4469	-	TSS region
Tssr160276	4549	4565	-	TSS region
Tssr160277	4578	4619	-	TSS region
Tssr160278	4633	4650	-	TSS region
Tssr160279	4653	4681	-	TSS region
Tssr160280	4756	4799	-	TSS region
Tssr160281	5039	5069	-	TSS region
Tssr160282	5795	5827	-	TSS region
Tssr160283	5858	5875	-	TSS region
Tssr160284	5928	5943	-	TSS region
Tssr160285	6181	6190	-	TSS region
Tssr160286	6223	6252	-	TSS region
Tssr160287	6394	6410	-	TSS region
Tssr160288	11143	11229	-	TSS region
Tssr160289	11260	11281	-	TSS region
Tssr160290	11338	11364	-	TSS region
Tssr160291	11411	11545	-	TSS region
Tssr160292	11667	11677	-	TSS region
Tssr160293	11703	11714	-	TSS region
Tssr160294	11745	11761	-	TSS region
Tssr160295	11816	11825	-	TSS region
Tssr160296	11883	11894	-	TSS region
Tssr160297	11924	11936	-	TSS region
Tssr160298	11945	11973	-	TSS region
Tssr160299	11989	12000	-	TSS region
Tssr160300	12012	12033	-	TSS region
Tssr160301	12061	12098	-	TSS region
Tssr160302	12124	12146	-	TSS region
Tssr160303	12150	12168	-	TSS region
Tssr160304	12186	12202	-	TSS region
Tssr160305	12218	12271	-	TSS region
Tssr160306	12356	12383	-	TSS region
Tssr160307	12387	12432	-	TSS region
Tssr160308	12441	12477	-	TSS region
Tssr160309	12657	12678	-	TSS region
Tssr160310	12684	12750	-	TSS region
Tssr160311	12844	12881	-	TSS region
Tssr160312	12904	12928	-	TSS region
Tssr160313	13010	13058	-	TSS region
Tssr160314	13153	13203	-	TSS region
Tssr160315	13281	13334	-	TSS region
Tssr160316	13343	13371	-	TSS region
Tssr160317	13407	13433	-	TSS region
Tssr160318	13445	13452	-	TSS region
Tssr160319	13456	13483	-	TSS region
Tssr160320	13486	13509	-	TSS region
Tssr160321	13523	13536	-	TSS region
Tssr160322	13538	13561	-	TSS region
Tssr160323	13563	13607	-	TSS region
Tssr160324	13683	13710	-	TSS region
Tssr160325	13725	13748	-	TSS region
Tssr160326	13749	13807	-	TSS region
Tssr160327	13814	13833	-	TSS region
Tssr160328	13835	13846	-	TSS region
Tssr160329	13849	13892	-	TSS region
Tssr160330	13930	13967	-	TSS region
Tssr160331	13975	13985	-	TSS region
Tssr160332	14025	14036	-	TSS region
Tssr160333	14060	14074	-	TSS region
Tssr160334	14142	14181	-	TSS region
Tssr160335	14287	14300	-	TSS region
Tssr160336	14532	14543	-	TSS region
Tssr160337	14576	14587	-	TSS region
Tssr160338	14676	14692	-	TSS region
Tssr160339	14769	14783	-	TSS region
Tssr160340	14784	14824	-	TSS region
Tssr160341	14841	14867	-	TSS region
Tssr160342	14871	14887	-	TSS region
Tssr160343	14906	14954	-	TSS region
Tssr160344	14983	15032	-	TSS region
Tssr160345	15037	15053	-	TSS region
Tssr160346	15075	15100	-	TSS region
Tssr160347	15354	15365	-	TSS region
Tssr160348	15368	15379	-	TSS region
Tssr160349	15380	15441	-	TSS region
Tssr160350	15630	15667	-	TSS region
Tssr160351	16053	16095	-	TSS region
Tssr160352	16180	16196	-	TSS region